<?xml version="1.0"?>
<robot name="mops" xmlns:xacro="http://ros.org/wiki/xacro">
  
  <!--
    This file contains a description of the single-arm MOPS setup with Si tool adapter as
    used for the RCM control using the extended Jacobian method.
    The system consists of an UR5 robot arm, the adapter, additional virtual prismatic joint 'lambda'
    and the tool.
    The lambda joint moves the 'rcm' link along the tool axis.
    It is expected that this rcm link coincides with the RCM point position.
  -->

  <xacro:include filename="$(find ur_description)/urdf/ur_macro.xacro" /> <!-- From 'ros-<distro>-ur-description' -->
  <xacro:include filename="$(find mops_description)/urdf/dv_tools.urdf.xacro" />

  <xacro:arg name="joint_limit_params_file" default="$(find ur_description)/config/ur5e/joint_limits.yaml" />
  <xacro:arg name="kinematics_params_file" default="$(find ur_description)/config/ur5e/default_kinematics.yaml" />
  <xacro:arg name="physical_params_file" default="$(find ur_description)/config/ur5e/physical_parameters.yaml" />
  <xacro:arg name="visual_params_file" default="$(find ur_description)/config/ur5e/visual_parameters.yaml" />

  <link name="world" />

  <!-- UR5e robot -->
  <xacro:ur_robot
      name="ur"
      tf_prefix="ur_"
      parent="world"
      joint_limits_parameters_file="$(arg joint_limit_params_file)"
      kinematics_parameters_file="$(arg kinematics_params_file)"
      physical_parameters_file="$(arg physical_params_file)"
      visual_parameters_file="$(arg visual_params_file)">
    <origin xyz="0 0 0" rpy="0 0 0" />
  </xacro:ur_robot>

  <!-- LND 420006 tool -->
  <xacro:dv_large_needle_driver_420006 prefix="tool_" parent="ur_flange">
    <origin xyz="0.111 0 0.028" rpy="${pi} ${-pi/2} 0" /> <!-- Values taken from the tool adapter CAD model -->
  </xacro:dv_large_needle_driver_420006>
  
  <link name="rcm_link"/>
  
  <joint name="lambda" type="prismatic">
    <parent link="tool_base"/>
    <child link="rcm_link"/>
    <origin xyz="0 0 0" rpy="${-pi} ${-pi/2} 0"/> <!-- same as the tool base to the tube -->
    <axis xyz="0 0 1"/>
    <limit lower="0" upper="1" velocity="10" effort="100"/>
  </joint>
  
  <!-- Touch haptic devices -->
  <link name="touch_base" />

  <joint name="world_touch_fixed" type="fixed">
    <parent link="world" />
    <child link="touch_base" />
    <origin xyz="0.25 0.5 0" rpy="${pi/2} 0 ${pi}" />
  </joint>
  
  <!-- Gello haptic device -->
  <link name="gello_base" />

  <joint name="world_gello_fixed" type="fixed">
    <parent link="world" />
    <child link="gello_base" />
    <origin xyz="0.25 0.5 0" rpy="0 0 ${pi}" />
  </joint>

</robot>
